%YAML 1.1
%TAG !u! tag:unity3d.com,2011:
--- !u!1045 &1
EditorBuildSettings:
  m_ObjectHideFlags: 0
  serializedVersion: 2
  m_Scenes:
  - enabled: 1
    path: Assets/Scenes/main.unity
    guid: d721ccc9efdee49c0a3854f1cdd1b3c9
  - enabled: 1
    path: Assets/Scenes/admin.unity
    guid: de8768b9abad70a499a15e89190af551
